--------- beginning of main
11-07 21:24:14.532  1690  1690 D EmojiAltPhysicalKeyDetector: onKeyUp() : KeyEvent { action=ACTION_UP, keyCode=KEYCODE_SPACE, scanCode=57, metaState=0, flags=0x8, repeatCount=0, eventTime=3855317, downTime=3855195, deviceId=4, source=0x101 }
11-07 21:24:14.532  1690  1690 D EmojiAltPhysicalKeyDetector: onKeyUp() : Not Mapped: 62
11-07 21:24:15.043  1690  1690 D EmojiAltPhysicalKeyDetector: onKeyUp() : KeyEvent { action=ACTION_UP, keyCode=KEYCODE_MINUS, scanCode=12, metaState=0, flags=0x8, repeatCount=0, eventTime=3855827, downTime=3855827, deviceId=4, source=0x101 }
11-07 21:24:15.044  1690  1690 D EmojiAltPhysicalKeyDetector: onKeyUp() : Not Mapped: 69
11-07 21:24:15.145  1690  1690 D EmojiAltPhysicalKeyDetector: onKeyUp() : KeyEvent { action=ACTION_UP, keyCode=KEYCODE_T, scanCode=20, metaState=0, flags=0x8, repeatCount=0, eventTime=3855917, downTime=3855827, deviceId=4, source=0x101 }
11-07 21:24:15.145  1690  1690 D EmojiAltPhysicalKeyDetector: onKeyUp() : Not Mapped: 48
11-07 21:24:15.253  1690  1690 D EmojiAltPhysicalKeyDetector: onKeyUp() : KeyEvent { action=ACTION_UP, keyCode=KEYCODE_SPACE, scanCode=57, metaState=0, flags=0x8, repeatCount=0, eventTime=3856040, downTime=3855949, deviceId=4, source=0x101 }
11-07 21:24:15.253  1690  1690 D EmojiAltPhysicalKeyDetector: onKeyUp() : Not Mapped: 62
11-07 21:24:16.574  1690  1690 D EmojiAltPhysicalKeyDetector: onKeyUp() : KeyEvent { action=ACTION_UP, keyCode=KEYCODE_5, scanCode=6, metaState=0, flags=0x8, repeatCount=0, eventTime=3857361, downTime=3857270, deviceId=4, source=0x101 }
11-07 21:24:16.574  1690  1690 D EmojiAltPhysicalKeyDetector: onKeyUp() : Not Mapped: 12
11-07 21:24:16.665  1690  1690 D EmojiAltPhysicalKeyDetector: onKeyUp() : KeyEvent { action=ACTION_UP, keyCode=KEYCODE_MINUS, scanCode=12, metaState=0, flags=0x8, repeatCount=0, eventTime=3857452, downTime=3857361, deviceId=4, source=0x101 }
11-07 21:24:16.665  1690  1690 D EmojiAltPhysicalKeyDetector: onKeyUp() : Not Mapped: 69
11-07 21:24:16.786  1690  1690 D EmojiAltPhysicalKeyDetector: onKeyUp() : KeyEvent { action=ACTION_UP, keyCode=KEYCODE_SPACE, scanCode=57, metaState=0, flags=0x8, repeatCount=0, eventTime=3857572, downTime=3857482, deviceId=4, source=0x101 }
11-07 21:24:16.786  1690  1690 D EmojiAltPhysicalKeyDetector: onKeyUp() : Not Mapped: 62
11-07 21:24:17.298  1690  1690 D EmojiAltPhysicalKeyDetector: onKeyUp() : KeyEvent { action=ACTION_UP, keyCode=KEYCODE_SHIFT_RIGHT, scanCode=54, metaState=0, flags=0x8, repeatCount=0, eventTime=3858084, downTime=3857784, deviceId=4, source=0x101 }
11-07 21:24:17.299  1690  1690 D EmojiAltPhysicalKeyDetector: onKeyUp() : Not Mapped: 60
11-07 21:24:17.602  1690  1690 D EmojiAltPhysicalKeyDetector: onKeyUp() : KeyEvent { action=ACTION_UP, keyCode=KEYCODE_DEL, scanCode=14, metaState=0, flags=0x8, repeatCount=0, eventTime=3858388, downTime=3858294, deviceId=4, source=0x101 }
11-07 21:24:17.603  1690  1690 D EmojiAltPhysicalKeyDetector: onKeyUp() : Not Mapped: 67
11-07 21:24:17.872  1690  1690 D EmojiAltPhysicalKeyDetector: onKeyUp() : KeyEvent { action=ACTION_UP, keyCode=KEYCODE_DEL, scanCode=14, metaState=0, flags=0x8, repeatCount=0, eventTime=3858658, downTime=3858538, deviceId=4, source=0x101 }
11-07 21:24:17.872  1690  1690 D EmojiAltPhysicalKeyDetector: onKeyUp() : Not Mapped: 67
11-07 21:24:18.593  1690  1690 D EmojiAltPhysicalKeyDetector: onKeyUp() : KeyEvent { action=ACTION_UP, keyCode=KEYCODE_0, scanCode=11, metaState=0, flags=0x8, repeatCount=0, eventTime=3859380, downTime=3859320, deviceId=4, source=0x101 }
11-07 21:24:18.593  1690  1690 D EmojiAltPhysicalKeyDetector: onKeyUp() : Not Mapped: 7
11-07 21:24:18.864  1690  1690 D EmojiAltPhysicalKeyDetector: onKeyUp() : KeyEvent { action=ACTION_UP, keyCode=KEYCODE_SPACE, scanCode=57, metaState=0, flags=0x8, repeatCount=0, eventTime=3859651, downTime=3859531, deviceId=4, source=0x101 }
11-07 21:24:18.865  1690  1690 D EmojiAltPhysicalKeyDetector: onKeyUp() : Not Mapped: 62
11-07 21:24:19.527  1690  1690 D EmojiAltPhysicalKeyDetector: onKeyUp() : KeyEvent { action=ACTION_UP, keyCode=KEYCODE_SHIFT_RIGHT, scanCode=54, metaState=0, flags=0x8, repeatCount=0, eventTime=3860312, downTime=3860222, deviceId=4, source=0x101 }
11-07 21:24:19.527  1690  1690 D EmojiAltPhysicalKeyDetector: onKeyUp() : Not Mapped: 60
11-07 21:24:19.550  1690  1690 D EmojiAltPhysicalKeyDetector: onKeyUp() : KeyEvent { action=ACTION_UP, keyCode=KEYCODE_PERIOD, scanCode=52, metaState=0, flags=0x8, repeatCount=0, eventTime=3860312, downTime=3860312, deviceId=4, source=0x101 }
11-07 21:24:19.550  1690  1690 D EmojiAltPhysicalKeyDetector: onKeyUp() : Not Mapped: 56
11-07 21:24:19.647  1690  1690 D EmojiAltPhysicalKeyDetector: onKeyUp() : KeyEvent { action=ACTION_UP, keyCode=KEYCODE_SPACE, scanCode=57, metaState=0, flags=0x8, repeatCount=0, eventTime=3860434, downTime=3860312, deviceId=4, source=0x101 }
11-07 21:24:19.647  1690  1690 D EmojiAltPhysicalKeyDetector: onKeyUp() : Not Mapped: 62
11-07 21:24:20.820  1690  1690 D EmojiAltPhysicalKeyDetector: onKeyUp() : KeyEvent { action=ACTION_UP, keyCode=KEYCODE_L, scanCode=38, metaState=0, flags=0x8, repeatCount=0, eventTime=3861606, downTime=3861484, deviceId=4, source=0x101 }
11-07 21:24:20.820  1690  1690 D EmojiAltPhysicalKeyDetector: onKeyUp() : Not Mapped: 40
11-07 21:24:20.999  1690  1690 D EmojiAltPhysicalKeyDetector: onKeyUp() : KeyEvent { action=ACTION_UP, keyCode=KEYCODE_O, scanCode=24, metaState=0, flags=0x8, repeatCount=0, eventTime=3861786, downTime=3861696, deviceId=4, source=0x101 }
11-07 21:24:20.999  1690  1690 D EmojiAltPhysicalKeyDetector: onKeyUp() : Not Mapped: 43
11-07 21:24:21.299  1690  1690 D EmojiAltPhysicalKeyDetector: onKeyUp() : KeyEvent { action=ACTION_UP, keyCode=KEYCODE_G, scanCode=34, metaState=0, flags=0x8, repeatCount=0, eventTime=3862086, downTime=3861996, deviceId=4, source=0x101 }
11-07 21:24:21.299  1690  1690 D EmojiAltPhysicalKeyDetector: onKeyUp() : Not Mapped: 35
11-07 21:24:21.601  1690  1690 D EmojiAltPhysicalKeyDetector: onKeyUp() : KeyEvent { action=ACTION_UP, keyCode=KEYCODE_C, scanCode=46, metaState=0, flags=0x8, repeatCount=0, eventTime=3862388, downTime=3862297, deviceId=4, source=0x101 }
11-07 21:24:21.601  1690  1690 D EmojiAltPhysicalKeyDetector: onKeyUp() : Not Mapped: 31
11-07 21:24:21.784  1690  1690 D EmojiAltPhysicalKeyDetector: onKeyUp() : KeyEvent { action=ACTION_UP, keyCode=KEYCODE_A, scanCode=30, metaState=0, flags=0x8, repeatCount=0, eventTime=3862570, downTime=3862418, deviceId=4, source=0x101 }
11-07 21:24:21.784  1690  1690 D EmojiAltPhysicalKeyDetector: onKeyUp() : Not Mapped: 29
11-07 21:24:21.903  1690  1690 D EmojiAltPhysicalKeyDetector: onKeyUp() : KeyEvent { action=ACTION_UP, keyCode=KEYCODE_T, scanCode=20, metaState=0, flags=0x8, repeatCount=0, eventTime=3862690, downTime=3862599, deviceId=4, source=0x101 }
11-07 21:24:21.903  1690  1690 D EmojiAltPhysicalKeyDetector: onKeyUp() : Not Mapped: 48
11-07 21:24:22.176  1690  1690 D EmojiAltPhysicalKeyDetector: onKeyUp() : KeyEvent { action=ACTION_UP, keyCode=KEYCODE_PERIOD, scanCode=52, metaState=0, flags=0x8, repeatCount=0, eventTime=3862962, downTime=3862872, deviceId=4, source=0x101 }
11-07 21:24:22.176  1690  1690 D EmojiAltPhysicalKeyDetector: onKeyUp() : Not Mapped: 56
11-07 21:24:22.868  1690  1690 D EmojiAltPhysicalKeyDetector: onKeyUp() : KeyEvent { action=ACTION_UP, keyCode=KEYCODE_T, scanCode=20, metaState=0, flags=0x8, repeatCount=0, eventTime=3863655, downTime=3863625, deviceId=4, source=0x101 }
11-07 21:24:22.868  1690  1690 D EmojiAltPhysicalKeyDetector: onKeyUp() : Not Mapped: 48
11-07 21:24:23.320  1690  1690 D EmojiAltPhysicalKeyDetector: onKeyUp() : KeyEvent { action=ACTION_UP, keyCode=KEYCODE_X, scanCode=45, metaState=0, flags=0x8, repeatCount=0, eventTime=3864107, downTime=3863987, deviceId=4, source=0x101 }
11-07 21:24:23.320  1690  1690 D EmojiAltPhysicalKeyDetector: onKeyUp() : Not Mapped: 52
11-07 21:24:23.502  1690  1690 D EmojiAltPhysicalKeyDetector: onKeyUp() : KeyEvent { action=ACTION_UP, keyCode=KEYCODE_T, scanCode=20, metaState=0, flags=0x8, repeatCount=0, eventTime=3864289, downTime=3864199, deviceId=4, source=0x101 }
11-07 21:24:23.503  1690  1690 D EmojiAltPhysicalKeyDetector: onKeyUp() : Not Mapped: 48
